animation{
  name = "stopped",
  src_image = "npc/solarus/deku.png",
  directions = {
    { x = 0, y = 0, frame_width = 24, frame_height = 32, origin_x = 12, origin_y = 29 },
    { x = 0, y = 32, frame_width = 24, frame_height = 32, origin_x = 12, origin_y = 29 },
    { x = 48, y = 0, frame_width = 24, frame_height = 32, origin_x = 12, origin_y = 29 },
    { x = 0, y = 64, frame_width = 24, frame_height = 32, origin_x = 12, origin_y = 29 },
  },
}
animation{
  name = "walking",
  src_image = "npc/solarus/deku.png",
  frame_delay = 150,
  frame_to_loop_on = 0,
  directions = {
    { x = 0, y = 0, frame_width = 24, frame_height = 32, origin_x = 12, origin_y = 29, num_frames = 2 },
    { x = 0, y = 32, frame_width = 24, frame_height = 32, origin_x = 12, origin_y = 29, num_frames = 4 },
    { x = 48, y = 0, frame_width = 24, frame_height = 32, origin_x = 12, origin_y = 29, num_frames = 2 },
    { x = 0, y = 64, frame_width = 24, frame_height = 32, origin_x = 12, origin_y = 29, num_frames = 4 },
  },
}
